v 12.294922 12.870151 -26.653862
v 12.294922 12.870147 26.646143
v -13.005079 12.870148 11.849267
v -13.005079 12.870148 6.9898906
v -6.4050784 12.870148 10.346142
v -6.4050784 12.870151 -26.653862
v 12.294922 -12.129852 -26.653866
v 12.294922 -12.129856 26.646141
v -13.005079 -12.129855 11.849265
v -13.005079 -12.129855 6.9898887
v -6.4050784 -12.129855 10.346139
v -6.4050784 -12.129852 -26.653866
s 1
f 1// 2// 8//
f 1// 8// 7//
f 2// 3// 9//
f 2// 9// 8//
f 3// 4// 10//
f 3// 10// 9//
f 4// 5// 11//
f 4// 11// 10//
f 5// 6// 12//
f 5// 12// 11//
f 6// 1// 7//
f 6// 7// 12//
f 3// 5// 4//
f 2// 5// 3//
f 1// 5// 2//
f 1// 6// 5//
f 9// 10// 11//
f 8// 9// 11//
f 7// 8// 11//
f 7// 11// 12//
