v 11.800559 13.13901 10.286409
v 13.098215 13.13901 15.752035
v 9.8271217 13.139009 23.387194
v 1.4029024 13.139009 26.356726
v -3.0369415 13.139009 25.773912
v -6.9658475 13.139009 23.952038
v 7.5435276 13.139011 4.8567219
v 11.800559 -11.860992 10.286407
v 13.098215 -11.860993 15.752033
v 9.8271217 -11.860993 23.38719
v 1.4029024 -11.860993 26.356724
v -3.0369415 -11.860993 25.773911
v -6.9658475 -11.860993 23.952034
v 7.5435276 -11.860992 4.8567195
v 16.084152 13.139012 -13.422969
v 22.712276 13.139012 -8.3526554
v 22.712276 13.139011 -1.0948417
v 12.623215 13.139012 -8.6448431
v -6.7470975 13.139009 17.100473
v -7.3689728 13.139009 17.866098
v -10.109598 13.139009 22.166098
v -15.737722 13.13901 15.848911
v -17.601786 13.13901 8.139534
v -16.779131 13.139011 3.1410964
v -13.325223 13.139011 -2.6635921
v 3.9419646 13.139013 -26.043283
v 25.698214 13.139013 -26.043283
v 16.084152 -11.860991 -13.422971
v 22.712276 -11.860991 -8.3526573
v 22.712276 -11.860991 -1.0948439
v 12.623215 -11.860991 -8.644845
v -6.7470975 -11.860993 17.100471
v -7.3689728 -11.860993 17.866096
v -10.109598 -11.860993 22.166096
v -15.737722 -11.860993 15.848909
v -17.601786 -11.860992 8.1395321
v -16.779131 -11.860991 3.1410942
v -13.325223 -11.860991 -2.6635942
v 3.9419646 -11.86099 -26.043285
v 25.698214 -11.86099 -26.043285
v -16.979912 13.139011 -4.5604672
v -17.381474 13.139011 -4.0135922
v -20.012724 13.139011 1.056721
v -24.232256 13.139011 -5.08078
v -25.601786 13.139012 -11.18078
v -21.308037 13.139013 -22.469063
v -9.8158474 13.139013 -26.743284
v -2.5080352 13.139013 -26.393284
v -0.90022272 13.139013 -26.276096
v -16.979912 -11.860991 -4.5604692
v -17.381474 -11.860991 -4.0135942
v -20.012724 -11.860991 1.0567188
v -24.232256 -11.860991 -5.0807819
v -25.601786 -11.860991 -11.180782
v -21.308037 -11.86099 -22.469065
v -9.8158474 -11.86099 -26.743286
v -2.5080352 -11.86099 -26.393286
v -0.90022272 -11.86099 -26.276098
s 1
f 1// 2// 9//
f 1// 9// 8//
f 2// 3// 10//
f 2// 10// 9//
f 3// 4// 11//
f 3// 11// 10//
f 4// 5// 12//
f 4// 12// 11//
f 5// 6// 13//
f 5// 13// 12//
f 6// 7// 14//
f 6// 14// 13//
f 7// 1// 8//
f 7// 8// 14//
f 15// 16// 29//
f 15// 29// 28//
f 16// 17// 30//
f 16// 30// 29//
f 17// 18// 31//
f 17// 31// 30//
f 18// 19// 32//
f 18// 32// 31//
f 19// 20// 33//
f 19// 33// 32//
f 20// 21// 34//
f 20// 34// 33//
f 21// 22// 35//
f 21// 35// 34//
f 22// 23// 36//
f 22// 36// 35//
f 23// 24// 37//
f 23// 37// 36//
f 24// 25// 38//
f 24// 38// 37//
f 25// 26// 39//
f 25// 39// 38//
f 26// 27// 40//
f 26// 40// 39//
f 27// 15// 28//
f 27// 28// 40//
f 41// 42// 51//
f 41// 51// 50//
f 42// 43// 52//
f 42// 52// 51//
f 43// 44// 53//
f 43// 53// 52//
f 44// 45// 54//
f 44// 54// 53//
f 45// 46// 55//
f 45// 55// 54//
f 46// 47// 56//
f 46// 56// 55//
f 47// 48// 57//
f 47// 57// 56//
f 48// 49// 58//
f 48// 58// 57//
f 49// 41// 50//
f 49// 50// 58//
f 6// 1// 7//
f 5// 1// 6//
f 4// 1// 5//
f 3// 1// 4//
f 2// 1// 3//
f 26// 15// 27//
f 16// 18// 17//
f 15// 18// 16//
f 20// 22// 21//
f 25// 15// 26//
f 25// 18// 15//
f 25// 19// 18//
f 24// 19// 25//
f 23// 19// 24//
f 22// 19// 23//
f 20// 19// 22//
f 48// 41// 49//
f 47// 41// 48//
f 46// 41// 47//
f 45// 41// 46//
f 44// 41// 45//
f 44// 42// 41//
f 43// 42// 44//
f 13// 14// 8//
f 12// 13// 8//
f 11// 12// 8//
f 10// 11// 8//
f 9// 10// 8//
f 39// 40// 28//
f 29// 30// 31//
f 28// 29// 31//
f 33// 34// 35//
f 38// 39// 28//
f 38// 28// 31//
f 38// 31// 32//
f 37// 38// 32//
f 36// 37// 32//
f 35// 36// 32//
f 33// 35// 32//
f 57// 58// 50//
f 56// 57// 50//
f 55// 56// 50//
f 54// 55// 50//
f 53// 54// 50//
f 53// 50// 51//
f 52// 53// 51//
