v 7.2451587 12.466857 -16.396406
v 13.131096 12.466858 -17.866718
v 19.56469 12.466857 -16.790157
v 25.193596 12.466857 -13.671407
v 32.15844 12.466856 -4.915936
v 34.552971 12.466855 6.2848468
v 32.105316 12.466854 17.44813
v 24.688908 12.466854 26.312975
v 15.190472 12.466853 31.128599
v 3.4998462 12.466853 32.806725
v -13.578279 12.466853 29.338757
v -26.71109 12.466854 19.191097
v -32.411095 12.466855 9.0606279
v -34.347031 12.466856 -2.638592
v -31.534531 12.466857 -15.835469
v -22.987656 12.466858 -26.112034
v -12.449373 12.466859 -31.404221
v 0.49828359 12.466859 -33.193283
v 13.793596 12.466859 -31.083128
v 25.810783 12.466858 -24.715157
v 22.265472 12.466858 -19.744844
v 12.046721 12.466858 -24.844063
v 0.51390862 12.466858 -26.593283
v -19.338436 12.466858 -20.040157
v -26.747028 12.466856 -2.4604671
v -23.681404 12.466855 10.554379
v -14.957967 12.466854 20.577036
v -6.562654 12.466854 24.573912
v 3.4373462 12.466854 25.906725
v 20.501408 12.466854 20.410629
v 27.052971 12.466855 6.2145343
v 23.270161 12.466857 -5.9964046
v 14.481096 12.466857 -11.219843
v 12.763127 12.466857 -10.691718
v 12.177971 12.466857 -9.0698433
v 12.287346 12.466857 -8.0870304
v 12.323284 12.466857 -7.8682804
v 17.91547 12.466855 14.372348
v 10.387346 12.466855 14.372348
v 8.4857836 12.466855 11.006722
v 5.0115647 12.466855 14.391098
v 0.11078358 12.466855 15.506722
v -12.672029 12.466855 9.5551596
v -17.847031 12.466856 -5.1964049
v -14.774373 12.466857 -14.59875
v -5.7392163 12.466858 -17.793282
v 0.42406484 12.466857 -16.397188
v 5.0514088 12.466857 -11.98703
v 7.2451587 -12.533146 -16.396408
v 13.131096 -12.533146 -17.86672
v 19.56469 -12.533146 -16.790159
v 25.193596 -12.533146 -13.671409
v 32.15844 -12.533147 -4.9159379
v 34.552971 -12.533148 6.2848444
v 32.105316 -12.533149 17.448128
v 24.688908 -12.533149 26.312973
v 15.190472 -12.53315 31.128597
v 3.4998462 -12.53315 32.806725
v -13.578279 -12.53315 29.338755
v -26.71109 -12.533149 19.191095
v -32.411095 -12.533148 9.060626
v -34.347031 -12.533147 -2.6385942
v -31.534531 -12.533146 -15.835471
v -22.987656 -12.533145 -26.112036
v -12.449373 -12.533144 -31.404222
v 0.49828359 -12.533144 -33.193287
v 13.793596 -12.533144 -31.08313
v 25.810783 -12.533145 -24.71516
v 22.265472 -12.533145 -19.744846
v 12.046721 -12.533145 -24.844067
v 0.51390862 -12.533145 -26.593285
v -19.338436 -12.533145 -20.040159
v -26.747028 -12.533147 -2.4604692
v -23.681404 -12.533148 10.554377
v -14.957967 -12.533149 20.577034
v -6.562654 -12.533149 24.573908
v 3.4373462 -12.533149 25.906723
v 20.501408 -12.533149 20.410627
v 27.052971 -12.533148 6.2145319
v 23.270161 -12.533147 -5.996407
v 14.481096 -12.533146 -11.219845
v 12.763127 -12.533146 -10.69172
v 12.177971 -12.533146 -9.0698452
v 12.287346 -12.533146 -8.0870323
v 12.323284 -12.533146 -7.8682823
v 17.91547 -12.533148 14.372346
v 10.387346 -12.533148 14.372346
v 8.4857836 -12.533148 11.00672
v 5.0115647 -12.533148 14.391096
v 0.11078358 -12.533149 15.506721
v -12.672029 -12.533148 9.5551577
v -17.847031 -12.533147 -5.1964068
v -14.774373 -12.533146 -14.598752
v -5.7392163 -12.533146 -17.793283
v 0.42406484 -12.533146 -16.39719
v 5.0514088 -12.533146 -11.987033
v 4.5389085 12.466856 -3.7885921
v 1.3232836 12.466857 -9.5440617
v -4.0860915 12.466857 -11.69328
v -7.6681228 12.466857 -10.036249
v -8.9470291 12.466856 -5.3557796
v -6.078279 12.466856 5.0809407
v 0.55609608 12.466855 9.5067215
v 4.5748463 12.466855 8.0496902
v 6.4029713 12.466856 3.823909
v 4.5389085 -12.533147 -3.7885942
v 1.3232836 -12.533146 -9.5440636
v -4.0860915 -12.533146 -11.693283
v -7.6681228 -12.533146 -10.036251
v -8.9470291 -12.533147 -5.3557816
v -6.078279 -12.533148 5.0809383
v 0.55609608 -12.533148 9.5067196
v 4.5748463 -12.533148 8.0496883
v 6.4029713 -12.533147 3.8239069
s 1
f 1// 2// 50//
f 1// 50// 49//
f 2// 3// 51//
f 2// 51// 50//
f 3// 4// 52//
f 3// 52// 51//
f 4// 5// 53//
f 4// 53// 52//
f 5// 6// 54//
f 5// 54// 53//
f 6// 7// 55//
f 6// 55// 54//
f 7// 8// 56//
f 7// 56// 55//
f 8// 9// 57//
f 8// 57// 56//
f 9// 10// 58//
f 9// 58// 57//
f 10// 11// 59//
f 10// 59// 58//
f 11// 12// 60//
f 11// 60// 59//
f 12// 13// 61//
f 12// 61// 60//
f 13// 14// 62//
f 13// 62// 61//
f 14// 15// 63//
f 14// 63// 62//
f 15// 16// 64//
f 15// 64// 63//
f 16// 17// 65//
f 16// 65// 64//
f 17// 18// 66//
f 17// 66// 65//
f 18// 19// 67//
f 18// 67// 66//
f 19// 20// 68//
f 19// 68// 67//
f 20// 21// 69//
f 20// 69// 68//
f 21// 22// 70//
f 21// 70// 69//
f 22// 23// 71//
f 22// 71// 70//
f 23// 24// 72//
f 23// 72// 71//
f 24// 25// 73//
f 24// 73// 72//
f 25// 26// 74//
f 25// 74// 73//
f 26// 27// 75//
f 26// 75// 74//
f 27// 28// 76//
f 27// 76// 75//
f 28// 29// 77//
f 28// 77// 76//
f 29// 30// 78//
f 29// 78// 77//
f 30// 31// 79//
f 30// 79// 78//
f 31// 32// 80//
f 31// 80// 79//
f 32// 33// 81//
f 32// 81// 80//
f 33// 34// 82//
f 33// 82// 81//
f 34// 35// 83//
f 34// 83// 82//
f 35// 36// 84//
f 35// 84// 83//
f 36// 37// 85//
f 36// 85// 84//
f 37// 38// 86//
f 37// 86// 85//
f 38// 39// 87//
f 38// 87// 86//
f 39// 40// 88//
f 39// 88// 87//
f 40// 41// 89//
f 40// 89// 88//
f 41// 42// 90//
f 41// 90// 89//
f 42// 43// 91//
f 42// 91// 90//
f 43// 44// 92//
f 43// 92// 91//
f 44// 45// 93//
f 44// 93// 92//
f 45// 46// 94//
f 45// 94// 93//
f 46// 47// 95//
f 46// 95// 94//
f 47// 48// 96//
f 47// 96// 95//
f 48// 1// 49//
f 48// 49// 96//
f 97// 98// 107//
f 97// 107// 106//
f 98// 99// 108//
f 98// 108// 107//
f 99// 100// 109//
f 99// 109// 108//
f 100// 101// 110//
f 100// 110// 109//
f 101// 102// 111//
f 101// 111// 110//
f 102// 103// 112//
f 102// 112// 111//
f 103// 104// 113//
f 103// 113// 112//
f 104// 105// 114//
f 104// 114// 113//
f 105// 97// 106//
f 105// 106// 114//
f 48// 97// 1//
f 48// 98// 97//
f 37// 39// 38//
f 37// 40// 39//
f 47// 98// 48//
f 47// 99// 98//
f 46// 99// 47//
f 19// 21// 20//
f 19// 22// 21//
f 18// 22// 19//
f 18// 23// 22//
f 17// 23// 18//
f 17// 24// 23//
f 16// 24// 17//
f 15// 24// 16//
f 15// 25// 24//
f 14// 25// 15//
f 13// 25// 14//
f 13// 26// 25//
f 12// 26// 13//
f 12// 27// 26//
f 11// 27// 12//
f 11// 28// 27//
f 10// 28// 11//
f 10// 29// 28//
f 9// 29// 10//
f 9// 30// 29//
f 8// 30// 9//
f 7// 30// 8//
f 7// 31// 30//
f 6// 31// 7//
f 5// 31// 6//
f 5// 32// 31//
f 4// 32// 5//
f 4// 33// 32//
f 3// 33// 4//
f 2// 33// 3//
f 45// 99// 46//
f 45// 100// 99//
f 44// 100// 45//
f 44// 101// 100//
f 43// 101// 44//
f 43// 102// 101//
f 42// 102// 43//
f 42// 103// 102//
f 41// 103// 42//
f 41// 104// 103//
f 40// 104// 41//
f 37// 104// 40//
f 37// 105// 104//
f 37// 97// 105//
f 37// 1// 97//
f 36// 1// 37//
f 35// 1// 36//
f 34// 1// 35//
f 34// 2// 1//
f 34// 33// 2//
f 96// 49// 106//
f 96// 106// 107//
f 85// 86// 87//
f 85// 87// 88//
f 95// 96// 107//
f 95// 107// 108//
f 94// 95// 108//
f 67// 68// 69//
f 67// 69// 70//
f 66// 67// 70//
f 66// 70// 71//
f 65// 66// 71//
f 65// 71// 72//
f 64// 65// 72//
f 63// 64// 72//
f 63// 72// 73//
f 62// 63// 73//
f 61// 62// 73//
f 61// 73// 74//
f 60// 61// 74//
f 60// 74// 75//
f 59// 60// 75//
f 59// 75// 76//
f 58// 59// 76//
f 58// 76// 77//
f 57// 58// 77//
f 57// 77// 78//
f 56// 57// 78//
f 55// 56// 78//
f 55// 78// 79//
f 54// 55// 79//
f 53// 54// 79//
f 53// 79// 80//
f 52// 53// 80//
f 52// 80// 81//
f 51// 52// 81//
f 50// 51// 81//
f 93// 94// 108//
f 93// 108// 109//
f 92// 93// 109//
f 92// 109// 110//
f 91// 92// 110//
f 91// 110// 111//
f 90// 91// 111//
f 90// 111// 112//
f 89// 90// 112//
f 89// 112// 113//
f 88// 89// 113//
f 85// 88// 113//
f 85// 113// 114//
f 85// 114// 106//
f 85// 106// 49//
f 84// 85// 49//
f 83// 84// 49//
f 82// 83// 49//
f 82// 49// 50//
f 82// 50// 81//
