v 20.168541 13.13901 6.4067216
v 20.168541 13.139009 26.806725
v 3.0685401 13.139009 26.806725
v 20.168541 -11.860992 6.4067192
v 20.168541 -11.860994 26.806723
v 3.0685401 -11.860994 26.806723
v 20.168541 13.139013 -27.193283
v 20.168541 13.139012 -6.7932796
v 3.0685401 13.139013 -27.193283
v 20.168541 -11.86099 -27.193285
v 20.168541 -11.860991 -6.793282
v 3.0685401 -11.86099 -27.193285
v 1.46854 13.139009 26.806725
v -14.715054 13.139009 19.04813
v -20.231461 13.139011 -0.21202914
v -14.715054 13.139013 -19.471407
v 1.46854 13.139013 -27.193283
v 1.46854 -11.860994 26.806723
v -14.715054 -11.860993 19.048128
v -20.231461 -11.860991 -0.21203128
v -14.715054 -11.86099 -19.471409
v 1.46854 -11.86099 -27.193285
s 1
f 1// 2// 5//
f 1// 5// 4//
f 2// 3// 6//
f 2// 6// 5//
f 3// 1// 4//
f 3// 4// 6//
f 7// 8// 11//
f 7// 11// 10//
f 8// 9// 12//
f 8// 12// 11//
f 9// 7// 10//
f 9// 10// 12//
f 13// 14// 19//
f 13// 19// 18//
f 14// 15// 20//
f 14// 20// 19//
f 15// 16// 21//
f 15// 21// 20//
f 16// 17// 22//
f 16// 22// 21//
f 17// 13// 18//
f 17// 18// 22//
f 3// 2// 1//
f 7// 9// 8//
f 17// 14// 13//
f 17// 15// 14//
f 17// 16// 15//
f 6// 4// 5//
f 10// 11// 12//
f 22// 18// 19//
f 22// 19// 20//
f 22// 20// 21//
