v -0.5329231 12.870147 26.806725
v -19.432922 12.870147 26.806725
v -19.432922 12.870151 -27.193283
v -0.5329231 12.870151 -27.193283
v -0.5329231 -12.129857 26.806723
v -19.432922 -12.129857 26.806723
v -19.432922 -12.129852 -27.193285
v -0.5329231 -12.129852 -27.193285
v 19.774891 12.870148 6.006722
v 19.774891 12.870147 26.806725
v 1.0670769 12.870147 26.806725
v 19.774891 -12.129855 6.0067196
v 19.774891 -12.129857 26.806723
v 1.0670769 -12.129857 26.806723
v 12.667077 12.870148 12.106723
v 0.84363943 12.870149 0.91609597
v 12.667077 12.87015 -10.19328
v 12.667077 -12.129855 12.10672
v 0.84363943 -12.129854 0.91609389
v 12.667077 -12.129853 -10.193282
v 20.067078 12.870151 -27.193283
v 20.067078 12.870149 -2.8932796
v 1.0670769 12.870151 -27.193283
v 20.067078 -12.129852 -27.193285
v 20.067078 -12.129854 -2.8932817
v 1.0670769 -12.129852 -27.193285
s 1
f 1// 2// 6//
f 1// 6// 5//
f 2// 3// 7//
f 2// 7// 6//
f 3// 4// 8//
f 3// 8// 7//
f 4// 1// 5//
f 4// 5// 8//
f 9// 10// 13//
f 9// 13// 12//
f 10// 11// 14//
f 10// 14// 13//
f 11// 9// 12//
f 11// 12// 14//
f 15// 16// 19//
f 15// 19// 18//
f 16// 17// 20//
f 16// 20// 19//
f 17// 15// 18//
f 17// 18// 20//
f 21// 22// 25//
f 21// 25// 24//
f 22// 23// 26//
f 22// 26// 25//
f 23// 21// 24//
f 23// 24// 26//
f 3// 1// 4//
f 2// 1// 3//
f 11// 10// 9//
f 17// 16// 15//
f 21// 23// 22//
f 7// 8// 5//
f 6// 7// 5//
f 14// 12// 13//
f 20// 18// 19//
f 24// 25// 26//
