v 18.601339 13.139014 -34.803864
v 3.7482147 13.139013 -20.803864
v 18.291183 13.139012 -12.017924
v 23.248215 13.13901 7.105516
v 17.852121 13.139009 26.905519
v 2.2482147 13.139009 34.796143
v 2.2482147 13.139014 -34.803864
v 18.601339 -11.860989 -34.803867
v 3.7482147 -11.86099 -20.803865
v 18.291183 -11.860991 -12.017926
v 23.248215 -11.860992 7.1055136
v 17.852121 -11.860994 26.905518
v 2.2482147 -11.860994 34.796143
v 2.2482147 -11.860989 -34.803867
v -2.2517853 13.139009 34.796143
v -17.790068 13.139009 26.905519
v -23.151787 13.13901 7.105516
v -17.790068 13.139012 -12.674955
v -2.2517853 13.139013 -20.547613
v -2.2517853 -11.860994 34.796143
v -17.790068 -11.860994 26.905518
v -23.151787 -11.860992 7.1055136
v -17.790068 -11.860991 -12.674957
v -2.2517853 -11.86099 -20.547615
s 1
f 1// 2// 9//
f 1// 9// 8//
f 2// 3// 10//
f 2// 10// 9//
f 3// 4// 11//
f 3// 11// 10//
f 4// 5// 12//
f 4// 12// 11//
f 5// 6// 13//
f 5// 13// 12//
f 6// 7// 14//
f 6// 14// 13//
f 7// 1// 8//
f 7// 8// 14//
f 15// 16// 21//
f 15// 21// 20//
f 16// 17// 22//
f 16// 22// 21//
f 17// 18// 23//
f 17// 23// 22//
f 18// 19// 24//
f 18// 24// 23//
f 19// 15// 20//
f 19// 20// 24//
f 7// 2// 1//
f 6// 2// 7//
f 6// 3// 2//
f 6// 4// 3//
f 6// 5// 4//
f 19// 16// 15//
f 19// 17// 16//
f 19// 18// 17//
f 14// 8// 9//
f 13// 14// 9//
f 13// 9// 10//
f 13// 10// 11//
f 13// 11// 12//
f 24// 20// 21//
f 24// 21// 22//
f 24// 22// 23//
