v -3.9204664 12.601289 -27.003862
v -12.845467 12.601287 -5.0038605
v -23.047028 12.601289 -27.003862
v -3.9204664 -12.398714 -27.003866
v -12.845467 -12.398716 -5.0038629
v -23.047028 -12.398714 -27.003866
v 4.0889087 12.601285 26.996143
v 13.012346 12.601287 5.0961404
v 23.252972 12.601285 26.996143
v 4.0889087 -12.398719 26.996141
v 13.012346 -12.398717 5.0961385
v 23.252972 -12.398719 26.996141
v -21.290779 12.601285 26.996143
v 0.5779711 12.601289 -27.003862
v 21.460785 12.601289 -27.003862
v -0.40952891 12.601285 26.996143
v -21.290779 -12.398719 26.996141
v 0.5779711 -12.398714 -27.003866
v 21.460785 -12.398714 -27.003866
v -0.40952891 -12.398719 26.996141
s 1
f 1// 2// 5//
f 1// 5// 4//
f 2// 3// 6//
f 2// 6// 5//
f 3// 1// 4//
f 3// 4// 6//
f 7// 8// 11//
f 7// 11// 10//
f 8// 9// 12//
f 8// 12// 11//
f 9// 7// 10//
f 9// 10// 12//
f 13// 14// 18//
f 13// 18// 17//
f 14// 15// 19//
f 14// 19// 18//
f 15// 16// 20//
f 15// 20// 19//
f 16// 13// 17//
f 16// 17// 20//
f 1// 3// 2//
f 7// 9// 8//
f 14// 16// 15//
f 13// 16// 14//
f 4// 5// 6//
f 10// 11// 12//
f 18// 19// 20//
f 17// 18// 20//
