v 20.667408 12.543417 -26.814444
v 20.667408 12.543414 8.1855602
v 1.2049085 12.543417 -26.814444
v 20.667408 -12.456586 -26.814445
v 20.667408 -12.456589 8.1855583
v 1.2049085 -12.456586 -26.814445
v -19.132593 12.543413 27.185562
v -19.132593 12.543416 -5.6144419
v -0.80290407 12.543413 27.185562
v -19.132593 -12.456591 27.18556
v -19.132593 -12.456588 -5.6144438
v -0.80290407 -12.456591 27.18556
v 4.2002211 12.543413 27.185562
v -26.032593 12.543417 -26.814444
v -3.9435291 12.543417 -26.814444
v 26.167408 12.543413 27.185562
v 4.2002211 -12.456591 27.18556
v -26.032593 -12.456586 -26.814445
v -3.9435291 -12.456586 -26.814445
v 26.167408 -12.456591 27.18556
s 1
f 1// 2// 5//
f 1// 5// 4//
f 2// 3// 6//
f 2// 6// 5//
f 3// 1// 4//
f 3// 4// 6//
f 7// 8// 11//
f 7// 11// 10//
f 8// 9// 12//
f 8// 12// 11//
f 9// 7// 10//
f 9// 10// 12//
f 13// 14// 18//
f 13// 18// 17//
f 14// 15// 19//
f 14// 19// 18//
f 15// 16// 20//
f 15// 20// 19//
f 16// 13// 17//
f 16// 17// 20//
f 1// 3// 2//
f 7// 9// 8//
f 13// 15// 14//
f 13// 16// 15//
f 4// 5// 6//
f 10// 11// 12//
f 17// 18// 19//
f 17// 19// 20//
