v 8.0770092 12.466854 27.156725
v -8.5183029 12.466854 27.156725
v -0.23549108 12.466857 -9.5432806
v 8.0770092 -12.53315 27.156723
v -8.5183029 -12.53315 27.156723
v -0.23549108 -12.533146 -9.5432825
v 5.1418529 12.466857 -14.595625
v -0.23549108 12.466857 -12.343281
v -5.5933037 12.466857 -14.577657
v -7.816741 12.466858 -19.997969
v -5.575335 12.466858 -25.308908
v -0.23549108 12.466858 -27.543283
v 5.1231027 12.466858 -25.290939
v 7.3832588 12.466858 -19.997969
v 5.1418529 -12.533146 -14.595627
v -0.23549108 -12.533146 -12.343284
v -5.5933037 -12.533146 -14.577659
v -7.816741 -12.533145 -19.997971
v -5.575335 -12.533145 -25.30891
v -0.23549108 -12.533145 -27.543285
v 5.1231027 -12.533145 -25.290941
v 7.3832588 -12.533145 -19.997971
s 1
f 1// 2// 5//
f 1// 5// 4//
f 2// 3// 6//
f 2// 6// 5//
f 3// 1// 4//
f 3// 4// 6//
f 7// 8// 16//
f 7// 16// 15//
f 8// 9// 17//
f 8// 17// 16//
f 9// 10// 18//
f 9// 18// 17//
f 10// 11// 19//
f 10// 19// 18//
f 11// 12// 20//
f 11// 20// 19//
f 12// 13// 21//
f 12// 21// 20//
f 13// 14// 22//
f 13// 22// 21//
f 14// 7// 15//
f 14// 15// 22//
f 2// 1// 3//
f 13// 7// 14//
f 13// 8// 7//
f 13// 9// 8//
f 13// 10// 9//
f 13// 11// 10//
f 12// 11// 13//
f 5// 6// 4//
f 21// 22// 15//
f 21// 15// 16//
f 21// 16// 17//
f 21// 17// 18//
f 21// 18// 19//
f 20// 21// 19//
