v 5.9530272 12.466854 25.125475
v 0.20146458 12.466854 27.156725
v -5.5149417 12.466854 25.143444
v -7.8704109 12.466854 20.348911
v -5.5149417 12.466855 15.424691
v 0.20146458 12.466855 13.356723
v 5.9709959 12.466855 15.443441
v 8.3452148 12.466854 20.348911
v 5.9530272 -12.533149 25.125473
v 0.20146458 -12.53315 27.156723
v -5.5149417 -12.533149 25.143442
v -7.8704109 -12.533149 20.348909
v -5.5149417 -12.533149 15.424689
v 0.20146458 -12.533148 13.356721
v 5.9709959 -12.533149 15.443439
v 8.3452148 -12.533149 20.348909
v 7.6874022 12.466855 10.956723
v -7.2125983 12.466855 10.956723
v -7.2125983 12.466858 -27.543283
v 7.6874022 12.466858 -27.543283
v 7.6874022 -12.533148 10.95672
v -7.2125983 -12.533148 10.95672
v -7.2125983 -12.533145 -27.543285
v 7.6874022 -12.533145 -27.543285
s 1
f 1// 2// 10//
f 1// 10// 9//
f 2// 3// 11//
f 2// 11// 10//
f 3// 4// 12//
f 3// 12// 11//
f 4// 5// 13//
f 4// 13// 12//
f 5// 6// 14//
f 5// 14// 13//
f 6// 7// 15//
f 6// 15// 14//
f 7// 8// 16//
f 7// 16// 15//
f 8// 1// 9//
f 8// 9// 16//
f 17// 18// 22//
f 17// 22// 21//
f 18// 19// 23//
f 18// 23// 22//
f 19// 20// 24//
f 19// 24// 23//
f 20// 17// 21//
f 20// 21// 24//
f 7// 1// 8//
f 7// 2// 1//
f 6// 2// 7//
f 5// 2// 6//
f 5// 3// 2//
f 4// 3// 5//
f 19// 17// 20//
f 18// 17// 19//
f 15// 16// 9//
f 15// 9// 10//
f 14// 15// 10//
f 13// 14// 10//
f 13// 10// 11//
f 12// 13// 11//
f 23// 24// 21//
f 22// 23// 21//
