v -2.0017853 13.004579 19.056723
v -16.901787 13.004579 19.056723
v -16.901787 13.004582 -19.443281
v -2.0017853 13.004582 -19.443281
v -2.0017853 -11.995424 19.056721
v -16.901787 -11.995424 19.056721
v -16.901787 -11.99542 -19.443283
v -2.0017853 -11.99542 -19.443283
v 2.0982146 13.004582 -19.443281
v 16.998215 13.004582 -19.443281
v 16.998215 13.00458 4.9801593
v 14.344309 13.00458 16.241098
v 3.8919649 13.004579 19.056723
v 2.0982146 13.004579 19.056723
v 2.0982146 -11.99542 -19.443283
v 16.998215 -11.99542 -19.443283
v 16.998215 -11.995423 4.9801569
v 14.344309 -11.995424 16.241096
v 3.8919649 -11.995424 19.056721
v 2.0982146 -11.995424 19.056721
s 1
f 1// 2// 6//
f 1// 6// 5//
f 2// 3// 7//
f 2// 7// 6//
f 3// 4// 8//
f 3// 8// 7//
f 4// 1// 5//
f 4// 5// 8//
f 9// 10// 16//
f 9// 16// 15//
f 10// 11// 17//
f 10// 17// 16//
f 11// 12// 18//
f 11// 18// 17//
f 12// 13// 19//
f 12// 19// 18//
f 13// 14// 20//
f 13// 20// 19//
f 14// 9// 15//
f 14// 15// 20//
f 3// 1// 4//
f 2// 1// 3//
f 13// 9// 14//
f 12// 9// 13//
f 11// 9// 12//
f 10// 9// 11//
f 7// 8// 5//
f 6// 7// 5//
f 19// 20// 15//
f 18// 19// 15//
f 17// 18// 15//
f 16// 17// 15//
